src/design/transcript
# vsim -c uart_tb 
# Start time: 10:40:27 on May 19,2026
# ** Note: (vsim-3813) Design is being optimized due to module recompilation...
# //  Questa Sim
# //  Version 10.6c linux Jul 25 2017
# //
# //  Copyright 1991-2017 Mentor Graphics Corporation
# //  All Rights Reserved.
# //
# //  QuestaSim and its associated documentation contain trade
# //  secrets and commercial or financial information that are the property of
# //  Mentor Graphics Corporation and are privileged, confidential,
# //  and exempt from disclosure under the Freedom of Information Act,
# //  5 U.S.C. Section 552. Furthermore, this information
# //  is prohibited from disclosure under the Trade Secrets Act,
# //  18 U.S.C. Section 1905.
# //
# Loading work.uart_tb(fast)
# 
# ===Testing Start===
# [CHK] RESET_HELD
#   [PASS] RESET_HELD TX_DATA
#   [PASS] RESET_HELD TX_DONE
#   [PASS] RESET_HELD TX_ACTIVE
#   [PASS] RESET_HELD RX_DATA
#   [PASS] RESET_HELD RX_READY
#   [PASS] RESET_HELD RX_BUSY
# DUT: TX_DATA=1 TX_DONE=1 TX_ACTIVE=0 | RX_DATA=00 RX_READY=1 RX_BUSY=0
# REF: TX_DATA=1 TX_DONE=1 TX_ACTIVE=0 | RX_DATA=00 RX_READY=1 RX_BUSY=0
# [CHK] RESET_RELEASE
#   [PASS] RESET_RELEASE TX_DATA
#   [PASS] RESET_RELEASE TX_DONE
#   [PASS] RESET_RELEASE TX_ACTIVE
#   [PASS] RESET_RELEASE RX_DATA
#   [PASS] RESET_RELEASE RX_READY
#   [PASS] RESET_RELEASE RX_BUSY
# DUT: TX_DATA=1 TX_DONE=1 TX_ACTIVE=0 | RX_DATA=00 RX_READY=1 RX_BUSY=0
# REF: TX_DATA=1 TX_DONE=1 TX_ACTIVE=0 | RX_DATA=00 RX_READY=1 RX_BUSY=0
# 
# --- Group 1: Reset ---
# [CHK] RESET_HELD
#   [PASS] RESET_HELD TX_DATA
#   [PASS] RESET_HELD TX_DONE
#   [PASS] RESET_HELD TX_ACTIVE
#   [PASS] RESET_HELD RX_DATA
#   [PASS] RESET_HELD RX_READY
#   [PASS] RESET_HELD RX_BUSY
# DUT: TX_DATA=1 TX_DONE=1 TX_ACTIVE=0 | RX_DATA=00 RX_READY=1 RX_BUSY=0
# REF: TX_DATA=1 TX_DONE=1 TX_ACTIVE=0 | RX_DATA=00 RX_READY=1 RX_BUSY=0
# [CHK] RESET_RELEASE
#   [PASS] RESET_RELEASE TX_DATA
#   [PASS] RESET_RELEASE TX_DONE
#   [PASS] RESET_RELEASE TX_ACTIVE
#   [PASS] RESET_RELEASE RX_DATA
#   [PASS] RESET_RELEASE RX_READY
#   [PASS] RESET_RELEASE RX_BUSY
# DUT: TX_DATA=1 TX_DONE=1 TX_ACTIVE=0 | RX_DATA=00 RX_READY=1 RX_BUSY=0
# REF: TX_DATA=1 TX_DONE=1 TX_ACTIVE=0 | RX_DATA=00 RX_READY=1 RX_BUSY=0
# 
# --- Group 2: TX single bytes ---
# [CHK] TX_0xA5 STARTED
#   [PASS] TX_0xA5 STARTED TX_DATA
#   [PASS] TX_0xA5 STARTED TX_DONE
#   [PASS] TX_0xA5 STARTED TX_ACTIVE
#   [PASS] TX_0xA5 STARTED RX_DATA
#   [PASS] TX_0xA5 STARTED RX_READY
#   [PASS] TX_0xA5 STARTED RX_BUSY
# DUT: TX_DATA=0 TX_DONE=0 TX_ACTIVE=1 | RX_DATA=00 RX_READY=1 RX_BUSY=0
# REF: TX_DATA=0 TX_DONE=0 TX_ACTIVE=1 | RX_DATA=00 RX_READY=1 RX_BUSY=0
# [CHK] TX_0xA5 DONE
#   [PASS] TX_0xA5 DONE TX_DATA
#   [PASS] TX_0xA5 DONE TX_DONE
#   [PASS] TX_0xA5 DONE TX_ACTIVE
#   [PASS] TX_0xA5 DONE RX_DATA
#   [PASS] TX_0xA5 DONE RX_READY
#   [PASS] TX_0xA5 DONE RX_BUSY
# DUT: TX_DATA=1 TX_DONE=1 TX_ACTIVE=0 | RX_DATA=00 RX_READY=1 RX_BUSY=0
# REF: TX_DATA=1 TX_DONE=1 TX_ACTIVE=0 | RX_DATA=00 RX_READY=1 RX_BUSY=0
# [CHK] TX_0xA5 POST_DONE
#   [PASS] TX_0xA5 POST_DONE TX_DATA
#   [PASS] TX_0xA5 POST_DONE TX_DONE
#   [PASS] TX_0xA5 POST_DONE TX_ACTIVE
#   [PASS] TX_0xA5 POST_DONE RX_DATA
#   [PASS] TX_0xA5 POST_DONE RX_READY
#   [PASS] TX_0xA5 POST_DONE RX_BUSY
# DUT: TX_DATA=1 TX_DONE=1 TX_ACTIVE=0 | RX_DATA=00 RX_READY=1 RX_BUSY=0
# REF: TX_DATA=1 TX_DONE=1 TX_ACTIVE=0 | RX_DATA=00 RX_READY=1 RX_BUSY=0
# [CHK] BIT3_0 STARTED
#   [PASS] BIT3_0 STARTED TX_DATA
#   [PASS] BIT3_0 STARTED TX_DONE
#   [PASS] BIT3_0 STARTED TX_ACTIVE
#   [PASS] BIT3_0 STARTED RX_DATA
#   [PASS] BIT3_0 STARTED RX_READY
#   [PASS] BIT3_0 STARTED RX_BUSY
# DUT: TX_DATA=0 TX_DONE=0 TX_ACTIVE=1 | RX_DATA=00 RX_READY=1 RX_BUSY=0
# REF: TX_DATA=0 TX_DONE=0 TX_ACTIVE=1 | RX_DATA=00 RX_READY=1 RX_BUSY=0
# [CHK] BIT3_0 DONE
#   [PASS] BIT3_0 DONE TX_DATA
#   [PASS] BIT3_0 DONE TX_DONE
#   [PASS] BIT3_0 DONE TX_ACTIVE
#   [PASS] BIT3_0 DONE RX_DATA
#   [PASS] BIT3_0 DONE RX_READY
#   [PASS] BIT3_0 DONE RX_BUSY
# DUT: TX_DATA=1 TX_DONE=1 TX_ACTIVE=0 | RX_DATA=00 RX_READY=1 RX_BUSY=0
# REF: TX_DATA=1 TX_DONE=1 TX_ACTIVE=0 | RX_DATA=00 RX_READY=1 RX_BUSY=0
# [CHK] BIT3_0 POST_DONE
#   [PASS] BIT3_0 POST_DONE TX_DATA
#   [PASS] BIT3_0 POST_DONE TX_DONE
#   [PASS] BIT3_0 POST_DONE TX_ACTIVE
#   [PASS] BIT3_0 POST_DONE RX_DATA
#   [PASS] BIT3_0 POST_DONE RX_READY
#   [PASS] BIT3_0 POST_DONE RX_BUSY
# DUT: TX_DATA=1 TX_DONE=1 TX_ACTIVE=0 | RX_DATA=00 RX_READY=1 RX_BUSY=0
# REF: TX_DATA=1 TX_DONE=1 TX_ACTIVE=0 | RX_DATA=00 RX_READY=1 RX_BUSY=0
# [CHK] BIT3_1 STARTED
#   [PASS] BIT3_1 STARTED TX_DATA
#   [PASS] BIT3_1 STARTED TX_DONE
#   [PASS] BIT3_1 STARTED TX_ACTIVE
#   [PASS] BIT3_1 STARTED RX_DATA
#   [PASS] BIT3_1 STARTED RX_READY
#   [PASS] BIT3_1 STARTED RX_BUSY
# DUT: TX_DATA=0 TX_DONE=0 TX_ACTIVE=1 | RX_DATA=00 RX_READY=1 RX_BUSY=0
# REF: TX_DATA=0 TX_DONE=0 TX_ACTIVE=1 | RX_DATA=00 RX_READY=1 RX_BUSY=0
# [CHK] BIT3_1 DONE
#   [PASS] BIT3_1 DONE TX_DATA
#   [PASS] BIT3_1 DONE TX_DONE
#   [PASS] BIT3_1 DONE TX_ACTIVE
#   [PASS] BIT3_1 DONE RX_DATA
#   [PASS] BIT3_1 DONE RX_READY
#   [PASS] BIT3_1 DONE RX_BUSY
# DUT: TX_DATA=1 TX_DONE=1 TX_ACTIVE=0 | RX_DATA=00 RX_READY=1 RX_BUSY=0
# REF: TX_DATA=1 TX_DONE=1 TX_ACTIVE=0 | RX_DATA=00 RX_READY=1 RX_BUSY=0
# [CHK] BIT3_1 POST_DONE
#   [PASS] BIT3_1 POST_DONE TX_DATA
#   [PASS] BIT3_1 POST_DONE TX_DONE
#   [PASS] BIT3_1 POST_DONE TX_ACTIVE
#   [PASS] BIT3_1 POST_DONE RX_DATA
#   [PASS] BIT3_1 POST_DONE RX_READY
#   [PASS] BIT3_1 POST_DONE RX_BUSY
# DUT: TX_DATA=1 TX_DONE=1 TX_ACTIVE=0 | RX_DATA=00 RX_READY=1 RX_BUSY=0
# REF: TX_DATA=1 TX_DONE=1 TX_ACTIVE=0 | RX_DATA=00 RX_READY=1 RX_BUSY=0
# 
# --- Group 3: TX idle (xmitH never asserted) ---
# [CHK] TX_NO_XMIT_AA IDLE_END
#   [PASS] TX_NO_XMIT_AA IDLE_END TX_DATA
#   [PASS] TX_NO_XMIT_AA IDLE_END TX_DONE
#   [PASS] TX_NO_XMIT_AA IDLE_END TX_ACTIVE
#   [PASS] TX_NO_XMIT_AA IDLE_END RX_DATA
#   [PASS] TX_NO_XMIT_AA IDLE_END RX_READY
#   [PASS] TX_NO_XMIT_AA IDLE_END RX_BUSY
# DUT: TX_DATA=1 TX_DONE=1 TX_ACTIVE=0 | RX_DATA=00 RX_READY=1 RX_BUSY=0
# REF: TX_DATA=1 TX_DONE=1 TX_ACTIVE=0 | RX_DATA=00 RX_READY=1 RX_BUSY=0
# 
# --- Group 4: TX data lock (change data mid-frame) ---
# [CHK] TX_DATA_LOCK_B3 MID_FRAME
#   [PASS] TX_DATA_LOCK_B3 MID_FRAME TX_DATA
#   [PASS] TX_DATA_LOCK_B3 MID_FRAME TX_DONE
#   [PASS] TX_DATA_LOCK_B3 MID_FRAME TX_ACTIVE
#   [PASS] TX_DATA_LOCK_B3 MID_FRAME RX_DATA
#   [PASS] TX_DATA_LOCK_B3 MID_FRAME RX_READY
#   [PASS] TX_DATA_LOCK_B3 MID_FRAME RX_BUSY
# DUT: TX_DATA=0 TX_DONE=0 TX_ACTIVE=1 | RX_DATA=00 RX_READY=1 RX_BUSY=0
# REF: TX_DATA=0 TX_DONE=0 TX_ACTIVE=1 | RX_DATA=00 RX_READY=1 RX_BUSY=0
# [CHK] TX_DATA_LOCK_B3 DONE
#   [PASS] TX_DATA_LOCK_B3 DONE TX_DATA
#   [PASS] TX_DATA_LOCK_B3 DONE TX_DONE
#   [PASS] TX_DATA_LOCK_B3 DONE TX_ACTIVE
#   [PASS] TX_DATA_LOCK_B3 DONE RX_DATA
#   [PASS] TX_DATA_LOCK_B3 DONE RX_READY
#   [PASS] TX_DATA_LOCK_B3 DONE RX_BUSY
# DUT: TX_DATA=1 TX_DONE=1 TX_ACTIVE=0 | RX_DATA=00 RX_READY=1 RX_BUSY=0
# REF: TX_DATA=1 TX_DONE=1 TX_ACTIVE=0 | RX_DATA=00 RX_READY=1 RX_BUSY=0
# 
# --- Group 5: TX mid-frame xmitH assert ---
# [CHK] TX_MID_XMIT_A5 MID_FRAME
#   [PASS] TX_MID_XMIT_A5 MID_FRAME TX_DATA
#   [PASS] TX_MID_XMIT_A5 MID_FRAME TX_DONE
#   [PASS] TX_MID_XMIT_A5 MID_FRAME TX_ACTIVE
#   [PASS] TX_MID_XMIT_A5 MID_FRAME RX_DATA
#   [PASS] TX_MID_XMIT_A5 MID_FRAME RX_READY
#   [PASS] TX_MID_XMIT_A5 MID_FRAME RX_BUSY
# DUT: TX_DATA=0 TX_DONE=0 TX_ACTIVE=1 | RX_DATA=00 RX_READY=1 RX_BUSY=0
# REF: TX_DATA=0 TX_DONE=0 TX_ACTIVE=1 | RX_DATA=00 RX_READY=1 RX_BUSY=0
# [CHK] TX_MID_XMIT_A5 FIRST_DONE
#   [PASS] TX_MID_XMIT_A5 FIRST_DONE TX_DATA
#   [PASS] TX_MID_XMIT_A5 FIRST_DONE TX_DONE
#   [PASS] TX_MID_XMIT_A5 FIRST_DONE TX_ACTIVE
#   [PASS] TX_MID_XMIT_A5 FIRST_DONE RX_DATA
#   [PASS] TX_MID_XMIT_A5 FIRST_DONE RX_READY
#   [PASS] TX_MID_XMIT_A5 FIRST_DONE RX_BUSY
# DUT: TX_DATA=1 TX_DONE=1 TX_ACTIVE=0 | RX_DATA=00 RX_READY=1 RX_BUSY=0
# REF: TX_DATA=1 TX_DONE=1 TX_ACTIVE=0 | RX_DATA=00 RX_READY=1 RX_BUSY=0
# 
# --- Group 6: RX valid frames ---
# [CHK] RX_0xA5 START
#   [PASS] RX_0xA5 START RX_READY
#   [PASS] RX_0xA5 START RX_BUSY
# [CHK] RX_0xA5 AFTER_DATA
#   [PASS] RX_0xA5 AFTER_DATA TX_DATA
#   [PASS] RX_0xA5 AFTER_DATA TX_DONE
#   [PASS] RX_0xA5 AFTER_DATA TX_ACTIVE
# [FAIL] RX_0xA5 AFTER_DATA RX_DATA
# [FAIL] RX_0xA5 AFTER_DATA RX_READY
# [FAIL] RX_0xA5 AFTER_DATA RX_BUSY
# DUT: TX_DATA=1 TX_DONE=1 TX_ACTIVE=0 | RX_DATA=45 RX_READY=1 RX_BUSY=0
# REF: TX_DATA=1 TX_DONE=1 TX_ACTIVE=0 | RX_DATA=a5 RX_READY=0 RX_BUSY=1
# [CHK] RX_0xA5 STOP
#   [PASS] RX_0xA5 STOP TX_DATA
#   [PASS] RX_0xA5 STOP TX_DONE
#   [PASS] RX_0xA5 STOP TX_ACTIVE
# [FAIL] RX_0xA5 STOP RX_DATA
#   [PASS] RX_0xA5 STOP RX_READY
#   [PASS] RX_0xA5 STOP RX_BUSY
# DUT: TX_DATA=1 TX_DONE=1 TX_ACTIVE=0 | RX_DATA=00 RX_READY=1 RX_BUSY=0
# REF: TX_DATA=1 TX_DONE=1 TX_ACTIVE=0 | RX_DATA=a5 RX_READY=1 RX_BUSY=0
# [CHK] RX_0xA5 IDLE
#   [PASS] RX_0xA5 IDLE TX_DATA
#   [PASS] RX_0xA5 IDLE TX_DONE
#   [PASS] RX_0xA5 IDLE TX_ACTIVE
# [FAIL] RX_0xA5 IDLE RX_DATA
#   [PASS] RX_0xA5 IDLE RX_READY
#   [PASS] RX_0xA5 IDLE RX_BUSY
# DUT: TX_DATA=1 TX_DONE=1 TX_ACTIVE=0 | RX_DATA=00 RX_READY=1 RX_BUSY=0
# REF: TX_DATA=1 TX_DONE=1 TX_ACTIVE=0 | RX_DATA=a5 RX_READY=1 RX_BUSY=0
# [CHK] RX_0x00 START
#   [PASS] RX_0x00 START RX_READY
#   [PASS] RX_0x00 START RX_BUSY
# [CHK] RX_0x00 AFTER_DATA
#   [PASS] RX_0x00 AFTER_DATA TX_DATA
#   [PASS] RX_0x00 AFTER_DATA TX_DONE
#   [PASS] RX_0x00 AFTER_DATA TX_ACTIVE
#   [PASS] RX_0x00 AFTER_DATA RX_DATA
#   [PASS] RX_0x00 AFTER_DATA RX_READY
#   [PASS] RX_0x00 AFTER_DATA RX_BUSY
# DUT: TX_DATA=1 TX_DONE=1 TX_ACTIVE=0 | RX_DATA=00 RX_READY=0 RX_BUSY=1
# REF: TX_DATA=1 TX_DONE=1 TX_ACTIVE=0 | RX_DATA=00 RX_READY=0 RX_BUSY=1
# [CHK] RX_0x00 STOP
#   [PASS] RX_0x00 STOP TX_DATA
#   [PASS] RX_0x00 STOP TX_DONE
#   [PASS] RX_0x00 STOP TX_ACTIVE
#   [PASS] RX_0x00 STOP RX_DATA
# [FAIL] RX_0x00 STOP RX_READY
#   [PASS] RX_0x00 STOP RX_BUSY
# DUT: TX_DATA=1 TX_DONE=1 TX_ACTIVE=0 | RX_DATA=00 RX_READY=0 RX_BUSY=0
# REF: TX_DATA=1 TX_DONE=1 TX_ACTIVE=0 | RX_DATA=00 RX_READY=1 RX_BUSY=0
# [CHK] RX_0x00 IDLE
#   [PASS] RX_0x00 IDLE TX_DATA
#   [PASS] RX_0x00 IDLE TX_DONE
#   [PASS] RX_0x00 IDLE TX_ACTIVE
#   [PASS] RX_0x00 IDLE RX_DATA
# [FAIL] RX_0x00 IDLE RX_READY
#   [PASS] RX_0x00 IDLE RX_BUSY
# DUT: TX_DATA=1 TX_DONE=1 TX_ACTIVE=0 | RX_DATA=00 RX_READY=0 RX_BUSY=0
# REF: TX_DATA=1 TX_DONE=1 TX_ACTIVE=0 | RX_DATA=00 RX_READY=1 RX_BUSY=0
# [CHK] RX_0xFF START
#   [PASS] RX_0xFF START RX_READY
#   [PASS] RX_0xFF START RX_BUSY
# [CHK] RX_0xFF AFTER_DATA
#   [PASS] RX_0xFF AFTER_DATA TX_DATA
#   [PASS] RX_0xFF AFTER_DATA TX_DONE
#   [PASS] RX_0xFF AFTER_DATA TX_ACTIVE
# [FAIL] RX_0xFF AFTER_DATA RX_DATA
# [FAIL] RX_0xFF AFTER_DATA RX_READY
# [FAIL] RX_0xFF AFTER_DATA RX_BUSY
# DUT: TX_DATA=1 TX_DONE=1 TX_ACTIVE=0 | RX_DATA=00 RX_READY=1 RX_BUSY=0
# REF: TX_DATA=1 TX_DONE=1 TX_ACTIVE=0 | RX_DATA=ff RX_READY=0 RX_BUSY=1
# [CHK] RX_0xFF STOP
#   [PASS] RX_0xFF STOP TX_DATA
#   [PASS] RX_0xFF STOP TX_DONE
#   [PASS] RX_0xFF STOP TX_ACTIVE
# [FAIL] RX_0xFF STOP RX_DATA
#   [PASS] RX_0xFF STOP RX_READY
#   [PASS] RX_0xFF STOP RX_BUSY
# DUT: TX_DATA=1 TX_DONE=1 TX_ACTIVE=0 | RX_DATA=00 RX_READY=1 RX_BUSY=0
# REF: TX_DATA=1 TX_DONE=1 TX_ACTIVE=0 | RX_DATA=ff RX_READY=1 RX_BUSY=0
# [CHK] RX_0xFF IDLE
#   [PASS] RX_0xFF IDLE TX_DATA
#   [PASS] RX_0xFF IDLE TX_DONE
#   [PASS] RX_0xFF IDLE TX_ACTIVE
# [FAIL] RX_0xFF IDLE RX_DATA
#   [PASS] RX_0xFF IDLE RX_READY
#   [PASS] RX_0xFF IDLE RX_BUSY
# DUT: TX_DATA=1 TX_DONE=1 TX_ACTIVE=0 | RX_DATA=00 RX_READY=1 RX_BUSY=0
# REF: TX_DATA=1 TX_DONE=1 TX_ACTIVE=0 | RX_DATA=ff RX_READY=1 RX_BUSY=0
# 
# --- Group 7: RX false start rejection ---
# [CHK] RX_FALSE_START_1 AFTER_FALSE_START
#   [PASS] RX_FALSE_START_1 AFTER_FALSE_START TX_DATA
#   [PASS] RX_FALSE_START_1 AFTER_FALSE_START TX_DONE
#   [PASS] RX_FALSE_START_1 AFTER_FALSE_START TX_ACTIVE
# [FAIL] RX_FALSE_START_1 AFTER_FALSE_START RX_DATA
# [FAIL] RX_FALSE_START_1 AFTER_FALSE_START RX_READY
#   [PASS] RX_FALSE_START_1 AFTER_FALSE_START RX_BUSY
# DUT: TX_DATA=1 TX_DONE=1 TX_ACTIVE=0 | RX_DATA=00 RX_READY=0 RX_BUSY=0
# REF: TX_DATA=1 TX_DONE=1 TX_ACTIVE=0 | RX_DATA=ff RX_READY=1 RX_BUSY=0
# [CHK] RX_FALSE_START_2 AFTER_FALSE_START
#   [PASS] RX_FALSE_START_2 AFTER_FALSE_START TX_DATA
#   [PASS] RX_FALSE_START_2 AFTER_FALSE_START TX_DONE
#   [PASS] RX_FALSE_START_2 AFTER_FALSE_START TX_ACTIVE
# [FAIL] RX_FALSE_START_2 AFTER_FALSE_START RX_DATA
# [FAIL] RX_FALSE_START_2 AFTER_FALSE_START RX_READY
#   [PASS] RX_FALSE_START_2 AFTER_FALSE_START RX_BUSY
# DUT: TX_DATA=1 TX_DONE=1 TX_ACTIVE=0 | RX_DATA=00 RX_READY=0 RX_BUSY=0
# REF: TX_DATA=1 TX_DONE=1 TX_ACTIVE=0 | RX_DATA=ff RX_READY=1 RX_BUSY=0
# 
# --- Group 8: RX bad stop bit ---
# [CHK] RX_BAD_STOP_A5 START
#   [PASS] RX_BAD_STOP_A5 START RX_READY
#   [PASS] RX_BAD_STOP_A5 START RX_BUSY
# [CHK] RX_BAD_STOP_A5 AFTER_DATA
#   [PASS] RX_BAD_STOP_A5 AFTER_DATA TX_DATA
#   [PASS] RX_BAD_STOP_A5 AFTER_DATA TX_DONE
#   [PASS] RX_BAD_STOP_A5 AFTER_DATA TX_ACTIVE
# [FAIL] RX_BAD_STOP_A5 AFTER_DATA RX_DATA
# [FAIL] RX_BAD_STOP_A5 AFTER_DATA RX_READY
# [FAIL] RX_BAD_STOP_A5 AFTER_DATA RX_BUSY
# DUT: TX_DATA=1 TX_DONE=1 TX_ACTIVE=0 | RX_DATA=00 RX_READY=1 RX_BUSY=0
# REF: TX_DATA=1 TX_DONE=1 TX_ACTIVE=0 | RX_DATA=a5 RX_READY=0 RX_BUSY=1
# [CHK] RX_BAD_STOP_A5 STOP
# [FAIL] RX_BAD_STOP_A5 STOP RX_READY
# [FAIL] RX_BAD_STOP_A5 STOP RX_BUSY
# [CHK] RX_BAD_STOP_A5 IDLE
#   [PASS] RX_BAD_STOP_A5 IDLE TX_DATA
#   [PASS] RX_BAD_STOP_A5 IDLE TX_DONE
#   [PASS] RX_BAD_STOP_A5 IDLE TX_ACTIVE
# [FAIL] RX_BAD_STOP_A5 IDLE RX_DATA
# [FAIL] RX_BAD_STOP_A5 IDLE RX_READY
# [FAIL] RX_BAD_STOP_A5 IDLE RX_BUSY
# DUT: TX_DATA=1 TX_DONE=1 TX_ACTIVE=0 | RX_DATA=80 RX_READY=0 RX_BUSY=1
# REF: TX_DATA=1 TX_DONE=1 TX_ACTIVE=0 | RX_DATA=00 RX_READY=1 RX_BUSY=0
# [CHK] RX_BAD_STOP_FF START
#   [PASS] RX_BAD_STOP_FF START RX_READY
#   [PASS] RX_BAD_STOP_FF START RX_BUSY
# [CHK] RX_BAD_STOP_FF AFTER_DATA
#   [PASS] RX_BAD_STOP_FF AFTER_DATA TX_DATA
#   [PASS] RX_BAD_STOP_FF AFTER_DATA TX_DONE
#   [PASS] RX_BAD_STOP_FF AFTER_DATA TX_ACTIVE
# [FAIL] RX_BAD_STOP_FF AFTER_DATA RX_DATA
# [FAIL] RX_BAD_STOP_FF AFTER_DATA RX_READY
# [FAIL] RX_BAD_STOP_FF AFTER_DATA RX_BUSY
# DUT: TX_DATA=1 TX_DONE=1 TX_ACTIVE=0 | RX_DATA=00 RX_READY=1 RX_BUSY=0
# REF: TX_DATA=1 TX_DONE=1 TX_ACTIVE=0 | RX_DATA=ff RX_READY=0 RX_BUSY=1
# [CHK] RX_BAD_STOP_FF STOP
# [FAIL] RX_BAD_STOP_FF STOP RX_READY
# [FAIL] RX_BAD_STOP_FF STOP RX_BUSY
# [CHK] RX_BAD_STOP_FF IDLE
#   [PASS] RX_BAD_STOP_FF IDLE TX_DATA
#   [PASS] RX_BAD_STOP_FF IDLE TX_DONE
#   [PASS] RX_BAD_STOP_FF IDLE TX_ACTIVE
# [FAIL] RX_BAD_STOP_FF IDLE RX_DATA
# [FAIL] RX_BAD_STOP_FF IDLE RX_READY
# [FAIL] RX_BAD_STOP_FF IDLE RX_BUSY
# DUT: TX_DATA=1 TX_DONE=1 TX_ACTIVE=0 | RX_DATA=80 RX_READY=0 RX_BUSY=1
# REF: TX_DATA=1 TX_DONE=1 TX_ACTIVE=0 | RX_DATA=00 RX_READY=1 RX_BUSY=0
# [CHK] PRE_B2B_IDLE
#   [PASS] PRE_B2B_IDLE TX_DATA
#   [PASS] PRE_B2B_IDLE TX_DONE
#   [PASS] PRE_B2B_IDLE TX_ACTIVE
# [FAIL] PRE_B2B_IDLE RX_DATA
#   [PASS] PRE_B2B_IDLE RX_READY
#   [PASS] PRE_B2B_IDLE RX_BUSY
# DUT: TX_DATA=1 TX_DONE=1 TX_ACTIVE=0 | RX_DATA=fe RX_READY=1 RX_BUSY=0
# REF: TX_DATA=1 TX_DONE=1 TX_ACTIVE=0 | RX_DATA=00 RX_READY=1 RX_BUSY=0
# 
# --- Group 9: Back-to-back TX ---
# [CHK] B2B_0x11 STARTED
#   [PASS] B2B_0x11 STARTED TX_DATA
#   [PASS] B2B_0x11 STARTED TX_DONE
#   [PASS] B2B_0x11 STARTED TX_ACTIVE
#   [PASS] B2B_0x11 STARTED RX_DATA
#   [PASS] B2B_0x11 STARTED RX_READY
#   [PASS] B2B_0x11 STARTED RX_BUSY
# DUT: TX_DATA=0 TX_DONE=0 TX_ACTIVE=1 | RX_DATA=00 RX_READY=1 RX_BUSY=0
# REF: TX_DATA=0 TX_DONE=0 TX_ACTIVE=1 | RX_DATA=00 RX_READY=1 RX_BUSY=0
# [CHK] B2B_0x11 DONE
#   [PASS] B2B_0x11 DONE TX_DATA
#   [PASS] B2B_0x11 DONE TX_DONE
#   [PASS] B2B_0x11 DONE TX_ACTIVE
#   [PASS] B2B_0x11 DONE RX_DATA
#   [PASS] B2B_0x11 DONE RX_READY
#   [PASS] B2B_0x11 DONE RX_BUSY
# DUT: TX_DATA=1 TX_DONE=1 TX_ACTIVE=0 | RX_DATA=00 RX_READY=1 RX_BUSY=0
# REF: TX_DATA=1 TX_DONE=1 TX_ACTIVE=0 | RX_DATA=00 RX_READY=1 RX_BUSY=0
# [CHK] B2B_0x11 POST_DONE
#   [PASS] B2B_0x11 POST_DONE TX_DATA
#   [PASS] B2B_0x11 POST_DONE TX_DONE
#   [PASS] B2B_0x11 POST_DONE TX_ACTIVE
#   [PASS] B2B_0x11 POST_DONE RX_DATA
#   [PASS] B2B_0x11 POST_DONE RX_READY
#   [PASS] B2B_0x11 POST_DONE RX_BUSY
# DUT: TX_DATA=1 TX_DONE=1 TX_ACTIVE=0 | RX_DATA=00 RX_READY=1 RX_BUSY=0
# REF: TX_DATA=1 TX_DONE=1 TX_ACTIVE=0 | RX_DATA=00 RX_READY=1 RX_BUSY=0
# [CHK] B2B_0x22 STARTED
#   [PASS] B2B_0x22 STARTED TX_DATA
#   [PASS] B2B_0x22 STARTED TX_DONE
#   [PASS] B2B_0x22 STARTED TX_ACTIVE
#   [PASS] B2B_0x22 STARTED RX_DATA
#   [PASS] B2B_0x22 STARTED RX_READY
#   [PASS] B2B_0x22 STARTED RX_BUSY
# DUT: TX_DATA=0 TX_DONE=0 TX_ACTIVE=1 | RX_DATA=00 RX_READY=1 RX_BUSY=0
# REF: TX_DATA=0 TX_DONE=0 TX_ACTIVE=1 | RX_DATA=00 RX_READY=1 RX_BUSY=0
# [CHK] B2B_0x22 DONE
#   [PASS] B2B_0x22 DONE TX_DATA
#   [PASS] B2B_0x22 DONE TX_DONE
#   [PASS] B2B_0x22 DONE TX_ACTIVE
#   [PASS] B2B_0x22 DONE RX_DATA
#   [PASS] B2B_0x22 DONE RX_READY
#   [PASS] B2B_0x22 DONE RX_BUSY
# DUT: TX_DATA=1 TX_DONE=1 TX_ACTIVE=0 | RX_DATA=00 RX_READY=1 RX_BUSY=0
# REF: TX_DATA=1 TX_DONE=1 TX_ACTIVE=0 | RX_DATA=00 RX_READY=1 RX_BUSY=0
# [CHK] B2B_0x22 POST_DONE
#   [PASS] B2B_0x22 POST_DONE TX_DATA
#   [PASS] B2B_0x22 POST_DONE TX_DONE
#   [PASS] B2B_0x22 POST_DONE TX_ACTIVE
#   [PASS] B2B_0x22 POST_DONE RX_DATA
#   [PASS] B2B_0x22 POST_DONE RX_READY
#   [PASS] B2B_0x22 POST_DONE RX_BUSY
# DUT: TX_DATA=1 TX_DONE=1 TX_ACTIVE=0 | RX_DATA=00 RX_READY=1 RX_BUSY=0
# REF: TX_DATA=1 TX_DONE=1 TX_ACTIVE=0 | RX_DATA=00 RX_READY=1 RX_BUSY=0
# [CHK] B2B_0x33 STARTED
#   [PASS] B2B_0x33 STARTED TX_DATA
#   [PASS] B2B_0x33 STARTED TX_DONE
#   [PASS] B2B_0x33 STARTED TX_ACTIVE
#   [PASS] B2B_0x33 STARTED RX_DATA
#   [PASS] B2B_0x33 STARTED RX_READY
#   [PASS] B2B_0x33 STARTED RX_BUSY
# DUT: TX_DATA=0 TX_DONE=0 TX_ACTIVE=1 | RX_DATA=00 RX_READY=1 RX_BUSY=0
# REF: TX_DATA=0 TX_DONE=0 TX_ACTIVE=1 | RX_DATA=00 RX_READY=1 RX_BUSY=0
# [CHK] B2B_0x33 DONE
#   [PASS] B2B_0x33 DONE TX_DATA
#   [PASS] B2B_0x33 DONE TX_DONE
#   [PASS] B2B_0x33 DONE TX_ACTIVE
#   [PASS] B2B_0x33 DONE RX_DATA
#   [PASS] B2B_0x33 DONE RX_READY
#   [PASS] B2B_0x33 DONE RX_BUSY
# DUT: TX_DATA=1 TX_DONE=1 TX_ACTIVE=0 | RX_DATA=00 RX_READY=1 RX_BUSY=0
# REF: TX_DATA=1 TX_DONE=1 TX_ACTIVE=0 | RX_DATA=00 RX_READY=1 RX_BUSY=0
# [CHK] B2B_0x33 POST_DONE
#   [PASS] B2B_0x33 POST_DONE TX_DATA
#   [PASS] B2B_0x33 POST_DONE TX_DONE
#   [PASS] B2B_0x33 POST_DONE TX_ACTIVE
#   [PASS] B2B_0x33 POST_DONE RX_DATA
#   [PASS] B2B_0x33 POST_DONE RX_READY
#   [PASS] B2B_0x33 POST_DONE RX_BUSY
# DUT: TX_DATA=1 TX_DONE=1 TX_ACTIVE=0 | RX_DATA=00 RX_READY=1 RX_BUSY=0
# REF: TX_DATA=1 TX_DONE=1 TX_ACTIVE=0 | RX_DATA=00 RX_READY=1 RX_BUSY=0
# [CHK] B2B_0x44 STARTED
#   [PASS] B2B_0x44 STARTED TX_DATA
#   [PASS] B2B_0x44 STARTED TX_DONE
#   [PASS] B2B_0x44 STARTED TX_ACTIVE
#   [PASS] B2B_0x44 STARTED RX_DATA
#   [PASS] B2B_0x44 STARTED RX_READY
#   [PASS] B2B_0x44 STARTED RX_BUSY
# DUT: TX_DATA=0 TX_DONE=0 TX_ACTIVE=1 | RX_DATA=00 RX_READY=1 RX_BUSY=0
# REF: TX_DATA=0 TX_DONE=0 TX_ACTIVE=1 | RX_DATA=00 RX_READY=1 RX_BUSY=0
# [CHK] B2B_0x44 DONE
#   [PASS] B2B_0x44 DONE TX_DATA
