src/design/uart_tb.vcd
$date
	Tue May 19 10:40:31 2026
$end
$version
	QuestaSim Version 10.6c
$end
$timescale
	1ps
$end

$scope module uart_tb $end

$scope task test_uart $end
$upscope $end

$scope task check $end
$upscope $end

$scope task reset_dut $end
$upscope $end

$scope task compare_outputs $end
$upscope $end

$scope task reset_during_start $end
$upscope $end

$scope task reset_during_data $end
$upscope $end

$scope task rx_reset_during_data $end
$upscope $end

$scope task tx_task $end
$upscope $end

$scope task tx_without_xmith $end
$upscope $end

$scope task tx_mid_xmith_test $end
$upscope $end

$scope task tx_change_data_mid $end
$upscope $end

$scope task rx_test $end
$upscope $end

$scope task false_start_test $end
$upscope $end

$scope task stop_bit_error_test $end
$upscope $end

$scope module dut $end

$scope module U_BAUD $end
$var reg 1 ! uart_clk $end
$upscope $end

$scope module U_XMIT $end
$var reg 2 " st [1:0] $end
$upscope $end

$scope module U_REC $end
$var reg 2 # st [1:0] $end
$upscope $end
$upscope $end
$upscope $end
$enddefinitions $end
#0
$dumpvars
0!
b0 "
b0 #
$end
#235000
1!
#365000
0!
#495000
1!
b1 "
#625000
0!
#755000
1!
#885000
0!
#1015000
1!
#1145000
0!
#1275000
1!
#1405000
0!
#1535000
1!
#1665000
0!
#1795000
1!
#1925000
0!
#2055000
1!
#2185000
0!
#2315000
1!
#2445000
0!
#2575000
1!
#2705000
0!
#2835000
1!
#2965000
0!
#3095000
1!
#3225000
0!
#3355000
1!
#3485000
0!
#3615000
1!
#3745000
0!
#3875000
1!
#4005000
0!
#4135000
1!
#4265000
0!
#4395000
1!
#4525000
0!
#4655000
1!
b10 "
#4785000
0!
#4915000
1!
#5045000
0!
#5175000
1!
#5305000
0!
#5435000
1!
#5565000
0!
#5695000
1!
#5825000
0!
#5955000
1!
#6085000
0!
#6215000
1!
#6345000
0!
#6475000
1!
#6605000
0!
#6735000
1!
#6865000
0!
#6995000
1!
#7125000
0!
#7255000
1!
#7385000
0!
#7515000
1!
#7645000
0!
#7775000
1!
#7905000
0!
#8035000
1!
#8165000
0!
#8295000
1!
#8425000
0!
#8555000
1!
#8685000
0!
#8815000
1!
#8945000
0!
#9075000
1!
#9205000
0!
#9335000
1!
#9465000
0!
#9595000
1!
#9725000
0!
#9855000
1!
#9985000
0!
#10115000
1!
#10245000
0!
#10375000
1!
#10505000
0!
#10635000
1!
#10765000
0!
#10895000
1!
#11025000
0!
#11155000
1!
#11285000
0!
#11415000
1!
#11545000
0!
#11675000
1!
#11805000
0!
#11935000
1!
#12065000
0!
#12195000
1!
#12325000
0!
#12455000
1!
#12585000
0!
#12715000
1!
#12845000
0!
#12975000
1!
#13105000
0!
#13235000
1!
#13365000
0!
#13495000
1!
#13625000
0!
#13755000
1!
#13885000
0!
#14015000
1!
#14145000
0!
#14275000
1!
#14405000
0!
#14535000
1!
#14665000
0!
#14795000
1!
#14925000
0!
#15055000
1!
#15185000
0!
#15315000
1!
#15445000
0!
#15575000
1!
#15705000
0!
#15835000
1!
#15965000
0!
#16095000
1!
#16225000
0!
#16355000
1!
#16485000
0!
#16615000
1!
#16745000
0!
#16875000
1!
#17005000
0!
#17135000
1!
#17265000
0!
#17395000
1!
#17525000
0!
#17655000
1!
#17785000
0!
#17915000
1!
#18045000
0!
#18175000
1!
#18305000
0!
#18435000
1!
#18565000
0!
#18695000
1!
#18825000
0!
#18955000
1!
#19085000
0!
#19215000
1!
#19345000
0!
#19475000
1!
#19605000
0!
#19735000
1!
#19865000
0!
#19995000
1!
#20125000
0!
#20255000
1!
#20385000
0!
#20515000
1!
#20645000
0!
#20775000
1!
#20905000
0!
#21035000
1!
#21165000
0!
#21295000
1!
#21425000
0!
#21555000
1!
#21685000
0!
#21815000
1!
#21945000
0!
#22075000
1!
#22205000
0!
#22335000
1!
#22465000
0!
#22595000
1!
#22725000
0!
#22855000
1!
#22985000
0!
#23115000
1!
#23245000
0!
#23375000
1!
#23505000
0!
#23635000
1!
#23765000
0!
#23895000
1!
#24025000
0!
#24155000
1!
#24285000
0!
#24415000
1!
#24545000
0!
#24675000
1!
#24805000
0!
#24935000
1!
#25065000
0!
#25195000
1!
#25325000
0!
#25455000
1!
#25585000
0!
#25715000
1!
#25845000
0!
#25975000
1!
#26105000
0!
#26235000
1!
#26365000
0!
#26495000
1!
#26625000
0!
#26755000
1!
#26885000
0!
#27015000
1!
#27145000
0!
#27275000
1!
#27405000
0!
#27535000
1!
#27665000
0!
#27795000
1!
#27925000
0!
#28055000
1!
#28185000
0!
#28315000
1!
#28445000
0!
#28575000
1!
#28705000
0!
#28835000
1!
#28965000
0!
#29095000
1!
#29225000
0!
#29355000
1!
#29485000
0!
#29615000
1!
#29745000
0!
#29875000
1!
#30005000
0!
#30135000
1!
#30265000
0!
#30395000
1!
#30525000
0!
#30655000
1!
#30785000
0!
#30915000
1!
#31045000
0!
#31175000
1!
#31305000
0!
#31435000
1!
#31565000
0!
#31695000
1!
#31825000
0!
#31955000
1!
#32085000
0!
#32215000
1!
#32345000
0!
#32475000
1!
#32605000
0!
#32735000
1!
#32865000
0!
#32995000
1!
#33125000
0!
#33255000
1!
#33385000
0!
#33515000
1!
#33645000
0!
#33775000
1!
#33905000
0!
#34035000
1!
#34165000
0!
#34295000
1!
#34425000
0!
#34555000
1!
#34685000
0!
#34815000
1!
#34945000
0!
#35075000
1!
#35205000
0!
#35335000
1!
#35465000
0!
#35595000
1!
#35725000
0!
#35855000
1!
#35985000
0!
#36115000
1!
#36245000
0!
#36375000
1!
#36505000
0!
#36635000
1!
#36765000
0!
#36895000
1!
#37025000
0!
#37155000
1!
#37285000
0!
#37415000
1!
#37545000
0!
#37675000
1!
#37805000
0!
#37935000
1!
b11 "
#38065000
0!
#38195000
1!
#38325000
0!
#38455000
1!
#38585000
0!
#38715000
1!
#38845000
0!
#38975000
1!
#39105000
0!
#39235000
1!
#39365000
0!
#39495000
1!
#39625000
0!
#39755000
1!
#39885000
0!
#40015000
1!
#40145000
0!
#40275000
1!
#40405000
0!
#40535000
1!
#40665000
0!
#40795000
1!
#40925000
0!
#41055000
1!
#41185000
0!
#41315000
1!
#41445000
0!
#41575000
1!
#41705000
0!
#41835000
1!
#41965000
0!
#42095000
1!
b0 "
#42225000
0!
#42355000
1!
#42485000
0!
#42615000
1!
b1 "
#42745000
0!
#42875000
1!
#43005000
0!
#43135000
1!
#43265000
0!
#43395000
1!
#43525000
0!
#43655000
1!
#43785000
0!
#43915000
1!
#44045000
0!
#44175000
1!
#44305000
0!
#44435000
1!
#44565000
0!
#44695000
1!
#44825000
0!
#44955000
1!
#45085000
0!
#45215000
1!
#45345000
0!
#45475000
1!
#45605000
0!
#45735000
1!
#45865000
0!
#45995000
1!
#46125000
0!
#46255000
1!
#46385000
0!
#46515000
1!
#46645000
0!
#46775000
1!
b10 "
#46905000
0!
#47035000
1!
#47165000
0!
#47295000
1!
#47425000
0!
#47555000
1!
#47685000
0!
#47815000
1!
#47945000
0!
#48075000
1!
#48205000
0!
#48335000
1!
#48465000
0!
#48595000
1!
#48725000
0!
#48855000
1!
#48985000
0!
#49115000
1!
#49245000
0!
#49375000
1!
#49505000
0!
#49635000
1!
#49765000
0!
#49895000
1!
#50025000
0!
#50155000
1!
#50285000
0!
#50415000
1!
#50545000
0!
#50675000
1!
#50805000
0!
#50935000
1!
#51065000
0!
#51195000
1!
#51325000
0!
#51455000
1!
#51585000
0!
#51715000
1!
#51845000
0!
#51975000
1!
#52105000
0!
#52235000
1!
#52365000
0!
#52495000
1!
#52625000
0!
#52755000
1!
#52885000
0!
#53015000
1!
#53145000
0!
#53275000
1!
#53405000
0!
#53535000
1!
#53665000
0!
#53795000
1!
#53925000
0!
#54055000
1!
#54185000
0!
#54315000
1!
#54445000
0!
#54575000
1!
#54705000
0!
#54835000
1!
#54965000
0!
#55095000
1!
#55225000
0!
#55355000
1!
#55485000
0!
#55615000
1!
#55745000
0!
#55875000
1!
#56005000
0!
#56135000
1!
#56265000
0!
#56395000
1!
#56525000
0!
#56655000
1!
#56785000
0!
#56915000
1!
#57045000
0!
#57175000
1!
#57305000
0!
#57435000
1!
#57565000
0!
#57695000
1!
#57825000
0!
#57955000
1!
#58085000
0!
#58215000
1!
#58345000
0!
#58475000
1!
#58605000
0!
#58735000
1!
#58865000
0!
#58995000
1!
#59125000
0!
#59255000
1!
#59385000
0!
#59515000
1!
#59645000
0!
#59775000
1!
#59905000
0!
#60035000
1!
#60165000
0!
#60295000
1!
#60425000
0!
#60555000
1!
#60685000
0!
#60815000
1!
#60945000
0!
#61075000
1!
#61205000
0!
#61335000
1!
#61465000
0!
#61595000
1!
#61725000
0!
#61855000
1!
#61985000
0!
#62115000
1!
#62245000
0!
#62375000
1!
#62505000
0!
#62635000
1!
#62765000
0!
#62895000
1!
#63025000
0!
#63155000
1!
#63285000
0!
#63415000
1!
#63545000
0!
#63675000
1!
#63805000
0!
#63935000
1!
#64065000
0!
#64195000
1!
#64325000
0!
#64455000
1!
#64585000
0!
#64715000
1!
#64845000
0!
#64975000
1!
#65105000
0!
#65235000
1!
#65365000
0!
#65495000
1!
#65625000
0!
#65755000
1!
#65885000
0!
#66015000
1!
#66145000
0!
#66275000
1!
#66405000
0!
#66535000
1!
#66665000
0!
#66795000
1!
#66925000
0!
#67055000
1!
#67185000
0!
#67315000
1!
#67445000
0!
#67575000
1!
#67705000
0!
#67835000
1!
#67965000
0!
#68095000
1!
#68225000
0!
#68355000
1!
#68485000
0!
#68615000
1!
#68745000
0!
#68875000
1!
#69005000
0!
#69135000
1!
#69265000
0!
#69395000
1!
#69525000
0!
#69655000
1!
#69785000
0!
#69915000
1!
#70045000
0!
#70175000
1!
#70305000
0!
#70435000
1!
#70565000
0!
#70695000
1!
#70825000
0!
#70955000
1!
#71085000
0!
#71215000
1!
#71345000
0!
#71475000
1!
#71605000
0!
#71735000
1!
#71865000
0!
#71995000
1!
#72125000
0!
#72255000
1!
#72385000
0!
#72515000
1!
#72645000
0!
#72775000
1!
#72905000
0!
#73035000
1!
#73165000
0!
#73295000
1!
#73425000
0!
#73555000
1!
#73685000
0!
#73815000
1!
#73945000
0!
#74075000
1!
#74205000
0!
#74335000
1!
#74465000
0!
#74595000
1!
#74725000
0!
#74855000
1!
#74985000
0!
#75115000
1!
#75245000
0!
#75375000
1!
#75505000
0!
#75635000
1!
#75765000
0!
#75895000
1!
#76025000
0!
#76155000
1!
#76285000
0!
#76415000
1!
#76545000
0!
#76675000
1!
#76805000
0!
#76935000
1!
#77065000
0!
#77195000
1!
#77325000
0!
#77455000
1!
#77585000
0!
#77715000
1!
#77845000
0!
#77975000
1!
#78105000
0!
#78235000
1!
#78365000
0!
#78495000
1!
#78625000
0!
#78755000
1!
#78885000
0!
#79015000
1!
#79145000
0!
#79275000
1!
#79405000
0!
#79535000
1!
#79665000
0!
#79795000
1!
#79925000
0!
#80055000
1!
b11 "
#80185000
0!
#80315000
1!
#80445000
0!
#80575000
1!
#80705000
0!
#80835000
1!
#80965000
0!
#81095000
1!
#81225000
0!
#81355000
1!
#81485000
0!
#81615000
1!
#81745000
0!
#81875000
1!
#82005000
0!
#82135000
1!
#82265000
0!
#82395000
1!
#82525000
0!
#82655000
1!
#82785000
0!
#82915000
1!
#83045000
0!
#83175000
1!
#83305000
0!
#83435000
1!
#83565000
0!
#83695000
1!
#83825000
0!
#83955000
1!
#84085000
0!
#84215000
1!
b0 "
#84345000
0!
#84475000
1!
#84605000
0!
#84735000
1!
b1 "
#84865000
0!
#84995000
1!
#85125000
0!
#85255000
1!
#85385000
0!
#85515000
1!
#85645000
0!
#85775000
1!
#85905000
0!
#86035000
1!
#86165000
0!
#86295000
1!
#86425000
0!
#86555000
1!
#86685000
0!
#86815000
1!
#86945000
0!
#87075000
1!
#87205000
0!
#87335000
1!
#87465000
0!
#87595000
1!
#87725000
0!
#87855000
1!
#87985000
0!
#88115000
1!
#88245000
0!
#88375000
1!
#88505000
0!
#88635000
1!
#88765000
0!
#88895000
1!
b10 "
